hdmi_sv.sim/tb_serdes/behav/xsim/simulate.log
Time resolution is 1 ps
Time: 0 | vid_in: xx | vid_out: xx | LED: xxxxxxxx
Time: 5000 | vid_in: 00 | vid_out: xx | LED: xxxxxxx0
Time: 15000 | vid_in: 24 | vid_out: xx | LED: xxxxxxx0
Time: 20000 | vid_in: 24 | vid_out: 00 | LED: xxxxxxx0
Time: 25000 | vid_in: 81 | vid_out: 00 | LED: xxxxxxx0
Time: 35000 | vid_in: 09 | vid_out: xx | LED: xxxxxxx0
Time: 45000 | vid_in: 63 | vid_out: xx | LED: xxxxxxx0
Time: 55000 | vid_in: 0d | vid_out: xx | LED: xxxxxxx0
Time: 65000 | vid_in: 8d | vid_out: xx | LED: xxxxxxx0
Time: 75000 | vid_in: 65 | vid_out: xx | LED: xxxxxxx0
Time: 85000 | vid_in: 12 | vid_out: xx | LED: xxxxxxx0
Time: 95000 | vid_in: 01 | vid_out: xx | LED: xxxxxxx0
Time: 105000 | vid_in: 0d | vid_out: xx | LED: xxxxxxx0
Time: 115000 | vid_in: 76 | vid_out: 00 | LED: xxxxxxx0
Time: 125000 | vid_in: 3d | vid_out: 00 | LED: xxxxxxx0
Time: 135000 | vid_in: ed | vid_out: 00 | LED: xxxxxxx0
Time: 145000 | vid_in: 8c | vid_out: xx | LED: xxxxxxx0
Time: 155000 | vid_in: f9 | vid_out: xx | LED: xxxxxxx0
Time: 165000 | vid_in: c6 | vid_out: xx | LED: xxxxxxx0
Time: 175000 | vid_in: c5 | vid_out: xx | LED: xxxxxxx0
Time: 185000 | vid_in: aa | vid_out: xx | LED: xxxxxxx0
Time: 195000 | vid_in: e5 | vid_out: xx | LED: xxxxxxx0
Time: 205000 | vid_in: 77 | vid_out: xx | LED: xxxxxxx0
Time: 215000 | vid_in: 12 | vid_out: xx | LED: xxxxxxx0
Time: 225000 | vid_in: 8f | vid_out: 00 | LED: xxxxxxx0
Time: 235000 | vid_in: f2 | vid_out: 00 | LED: xxxxxxx0
Time: 245000 | vid_in: ce | vid_out: 00 | LED: xxxxxxx0
Time: 255000 | vid_in: e8 | vid_out: xx | LED: xxxxxxx0
Time: 265000 | vid_in: c5 | vid_out: xx | LED: xxxxxxx0
Time: 275000 | vid_in: 5c | vid_out: xx | LED: xxxxxxx0
Time: 285000 | vid_in: bd | vid_out: xx | LED: xxxxxxx0
Time: 295000 | vid_in: 2d | vid_out: xx | LED: xxxxxxx0
Time: 305000 | vid_in: 65 | vid_out: xx | LED: xxxxxxx0
Time: 315000 | vid_in: 63 | vid_out: xx | LED: xxxxxxx0
Time: 325000 | vid_in: 0a | vid_out: xx | LED: xxxxxxx0
Time: 335000 | vid_in: 80 | vid_out: 00 | LED: xxxxxxx0
Time: 345000 | vid_in: 20 | vid_out: 00 | LED: xxxxxxx0
Time: 355000 | vid_in: aa | vid_out: 00 | LED: xxxxxxx0
Time: 365000 | vid_in: 9d | vid_out: xx | LED: xxxxxxx0
Time: 375000 | vid_in: 96 | vid_out: 20 | LED: xxxxxxx0
Time: 385000 | vid_in: 13 | vid_out: aa | LED: xxxxxxx0
Time: 395000 | vid_in: 0d | vid_out: 9d | LED: xxxxxxx0
Time: 405000 | vid_in: 53 | vid_out: 96 | LED: xxxxxxx0
Time: 415000 | vid_in: 6b | vid_out: 13 | LED: xxxxxxx0
Time: 425000 | vid_in: d5 | vid_out: 0d | LED: xxxxxxx0
Time: 435000 | vid_in: 02 | vid_out: 53 | LED: xxxxxxx0
Time: 445000 | vid_in: ae | vid_out: 00 | LED: xxxxxxx1
Time: 455000 | vid_in: 1d | vid_out: 00 | LED: xxxxxxx1
Time: 465000 | vid_in: cf | vid_out: 00 | LED: xxxxxxx1
Time: 475000 | vid_in: 23 | vid_out: 00 | LED: xxxxxxx1
Time: 485000 | vid_in: 0a | vid_out: 00 | LED: xxxxxxx1
Time: 495000 | vid_in: ca | vid_out: 00 | LED: xxxxxxx1
Time: 505000 | vid_in: 3c | vid_out: 00 | LED: xxxxxxx1
Time: 515000 | vid_in: f2 | vid_out: 00 | LED: xxxxxxx1
Time: 525000 | vid_in: 8a | vid_out: 00 | LED: xxxxxxx1
Time: 535000 | vid_in: 41 | vid_out: 00 | LED: xxxxxxx1
Time: 545000 | vid_in: d8 | vid_out: 00 | LED: xxxxxxx1
Time: 555000 | vid_in: 78 | vid_out: 00 | LED: xxxxxxx1
Time: 565000 | vid_in: 89 | vid_out: 00 | LED: xxxxxxx1
Time: 575000 | vid_in: eb | vid_out: 00 | LED: xxxxxxx1
Time: 585000 | vid_in: b6 | vid_out: 00 | LED: xxxxxxx1
Time: 595000 | vid_in: c6 | vid_out: 00 | LED: xxxxxxx1
Time: 605000 | vid_in: ae | vid_out: 00 | LED: xxxxxxx1
Time: 615000 | vid_in: bc | vid_out: 00 | LED: xxxxxxx1
Time: 625000 | vid_in: 2a | vid_out: 00 | LED: xxxxxxx1
Time: 635000 | vid_in: 0b | vid_out: 00 | LED: xxxxxxx0
Time: 645000 | vid_in: 71 | vid_out: 00 | LED: xxxxxxx0
Time: 655000 | vid_in: 85 | vid_out: 00 | LED: xxxxxxx0
Time: 665000 | vid_in: 4f | vid_out: 00 | LED: xxxxxxx0
Time: 675000 | vid_in: 3b | vid_out: 00 | LED: xxxxxxx0
Time: 685000 | vid_in: 3a | vid_out: 00 | LED: xxxxxxx0
Time: 695000 | vid_in: 7e | vid_out: 00 | LED: xxxxxxx0
Time: 705000 | vid_in: 15 | vid_out: 00 | LED: xxxxxxx0
Time: 715000 | vid_in: f1 | vid_out: 00 | LED: xxxxxxx0
Time: 725000 | vid_in: d9 | vid_out: 00 | LED: xxxxxxx0
Time: 735000 | vid_in: 62 | vid_out: 00 | LED: xxxxxxx0
Time: 745000 | vid_in: 4c | vid_out: 00 | LED: xxxxxxx0
Time: 755000 | vid_in: 9f | vid_out: 00 | LED: xxxxxxx0
Time: 765000 | vid_in: 8f | vid_out: 00 | LED: xxxxxxx0
Time: 775000 | vid_in: f8 | vid_out: 00 | LED: xxxxxxx0
Time: 785000 | vid_in: b7 | vid_out: 00 | LED: xxxxxxx0
Time: 795000 | vid_in: 9f | vid_out: 00 | LED: xxxxxxx0
Time: 805000 | vid_in: 5c | vid_out: d5 | LED: xxxxxxx0
Time: 815000 | vid_in: 5b | vid_out: d5 | LED: xxxxxxx0
Time: 825000 | vid_in: 89 | vid_out: 3d | LED: xxxxxxx0
Time: 835000 | vid_in: 49 | vid_out: 3d | LED: xxxxxxx0
Time: 845000 | vid_in: d0 | vid_out: ed | LED: xxxxxxx0
Time: 855000 | vid_in: d7 | vid_out: 8c | LED: xxxxxxx0
Time: 865000 | vid_in: 51 | vid_out: f9 | LED: xxxxxxx0
Time: 875000 | vid_in: 96 | vid_out: c6 | LED: xxxxxxx0
Time: 885000 | vid_in: 0c | vid_out: 00 | LED: xxxxxxx0
Time: 895000 | vid_in: c2 | vid_out: 00 | LED: xxxxxxx0
Time: 905000 | vid_in: c8 | vid_out: 00 | LED: xxxxxxx0
Time: 915000 | vid_in: 77 | vid_out: aa | LED: xxxxxxx0
Time: 925000 | vid_in: 3d | vid_out: aa | LED: xxxxxxx0
Time: 935000 | vid_in: 12 | vid_out: e5 | LED: xxxxxxx0
Time: 945000 | vid_in: 7e | vid_out: 77 | LED: xxxxxxx0
Time: 955000 | vid_in: 6d | vid_out: 12 | LED: xxxxxxx0
Time: 965000 | vid_in: 39 | vid_out: 8f | LED: xxxxxxx0
Time: 975000 | vid_in: 1f | vid_out: f2 | LED: xxxxxxx0
Time: 985000 | vid_in: d3 | vid_out: ce | LED: xxxxxxx0
Time: 995000 | vid_in: 85 | vid_out: 00 | LED: xxxxxxx0
